../Drivers/STM32L1xx_HAL_Driver/Src/stm32l1xx_hal_i2c.c:445:19:HAL_I2C_Init	24	static
../Drivers/STM32L1xx_HAL_Driver/Src/stm32l1xx_hal_i2c.c:560:19:HAL_I2C_DeInit	16	static
../Drivers/STM32L1xx_HAL_Driver/Src/stm32l1xx_hal_i2c.c:606:13:HAL_I2C_MspInit	16	static
../Drivers/STM32L1xx_HAL_Driver/Src/stm32l1xx_hal_i2c.c:622:13:HAL_I2C_MspDeInit	16	static
../Drivers/STM32L1xx_HAL_Driver/Src/stm32l1xx_hal_i2c.c:959:13:I2C_Flush_DR	16	static
../Drivers/STM32L1xx_HAL_Driver/Src/stm32l1xx_hal_i2c.c:1056:19:HAL_I2C_Master_Transmit	40	static
../Drivers/STM32L1xx_HAL_Driver/Src/stm32l1xx_hal_i2c.c:1177:19:HAL_I2C_Master_Receive	56	static
../Drivers/STM32L1xx_HAL_Driver/Src/stm32l1xx_hal_i2c.c:1428:19:HAL_I2C_Slave_Transmit	48	static
../Drivers/STM32L1xx_HAL_Driver/Src/stm32l1xx_hal_i2c.c:1558:19:HAL_I2C_Slave_Receive	48	static
../Drivers/STM32L1xx_HAL_Driver/Src/stm32l1xx_hal_i2c.c:1679:19:HAL_I2C_Master_Transmit_IT	32	static
../Drivers/STM32L1xx_HAL_Driver/Src/stm32l1xx_hal_i2c.c:1756:19:HAL_I2C_Master_Receive_IT	32	static
../Drivers/STM32L1xx_HAL_Driver/Src/stm32l1xx_hal_i2c.c:1836:19:HAL_I2C_Slave_Transmit_IT	24	static
../Drivers/STM32L1xx_HAL_Driver/Src/stm32l1xx_hal_i2c.c:1898:19:HAL_I2C_Slave_Receive_IT	24	static
../Drivers/STM32L1xx_HAL_Driver/Src/stm32l1xx_hal_i2c.c:1962:19:HAL_I2C_Master_Transmit_DMA	32	static
../Drivers/STM32L1xx_HAL_Driver/Src/stm32l1xx_hal_i2c.c:2115:19:HAL_I2C_Master_Receive_DMA	32	static
../Drivers/STM32L1xx_HAL_Driver/Src/stm32l1xx_hal_i2c.c:2266:19:HAL_I2C_Slave_Transmit_DMA	32	static
../Drivers/STM32L1xx_HAL_Driver/Src/stm32l1xx_hal_i2c.c:2378:19:HAL_I2C_Slave_Receive_DMA	32	static
../Drivers/STM32L1xx_HAL_Driver/Src/stm32l1xx_hal_i2c.c:2495:19:HAL_I2C_Mem_Write	40	static
../Drivers/STM32L1xx_HAL_Driver/Src/stm32l1xx_hal_i2c.c:2618:19:HAL_I2C_Mem_Read	56	static
../Drivers/STM32L1xx_HAL_Driver/Src/stm32l1xx_hal_i2c.c:2865:19:HAL_I2C_Mem_Write_IT	32	static
../Drivers/STM32L1xx_HAL_Driver/Src/stm32l1xx_hal_i2c.c:2950:19:HAL_I2C_Mem_Read_IT	32	static
../Drivers/STM32L1xx_HAL_Driver/Src/stm32l1xx_hal_i2c.c:3041:19:HAL_I2C_Mem_Write_DMA	48	static
../Drivers/STM32L1xx_HAL_Driver/Src/stm32l1xx_hal_i2c.c:3221:19:HAL_I2C_Mem_Read_DMA	56	static
../Drivers/STM32L1xx_HAL_Driver/Src/stm32l1xx_hal_i2c.c:3415:19:HAL_I2C_IsDeviceReady	48	static
../Drivers/STM32L1xx_HAL_Driver/Src/stm32l1xx_hal_i2c.c:3551:19:HAL_I2C_Master_Seq_Transmit_IT	32	static
../Drivers/STM32L1xx_HAL_Driver/Src/stm32l1xx_hal_i2c.c:3646:19:HAL_I2C_Master_Seq_Transmit_DMA	40	static
../Drivers/STM32L1xx_HAL_Driver/Src/stm32l1xx_hal_i2c.c:3826:19:HAL_I2C_Master_Seq_Receive_IT	40	static
../Drivers/STM32L1xx_HAL_Driver/Src/stm32l1xx_hal_i2c.c:3947:19:HAL_I2C_Master_Seq_Receive_DMA	40	static
../Drivers/STM32L1xx_HAL_Driver/Src/stm32l1xx_hal_i2c.c:4162:19:HAL_I2C_Slave_Seq_Transmit_IT	32	static
../Drivers/STM32L1xx_HAL_Driver/Src/stm32l1xx_hal_i2c.c:4228:19:HAL_I2C_Slave_Seq_Transmit_DMA	32	static
../Drivers/STM32L1xx_HAL_Driver/Src/stm32l1xx_hal_i2c.c:4402:19:HAL_I2C_Slave_Seq_Receive_IT	32	static
../Drivers/STM32L1xx_HAL_Driver/Src/stm32l1xx_hal_i2c.c:4468:19:HAL_I2C_Slave_Seq_Receive_DMA	32	static
../Drivers/STM32L1xx_HAL_Driver/Src/stm32l1xx_hal_i2c.c:4638:19:HAL_I2C_EnableListen_IT	16	static
../Drivers/STM32L1xx_HAL_Driver/Src/stm32l1xx_hal_i2c.c:4671:19:HAL_I2C_DisableListen_IT	24	static
../Drivers/STM32L1xx_HAL_Driver/Src/stm32l1xx_hal_i2c.c:4706:19:HAL_I2C_Master_Abort_IT	24	static
../Drivers/STM32L1xx_HAL_Driver/Src/stm32l1xx_hal_i2c.c:4765:6:HAL_I2C_EV_IRQHandler	40	static
../Drivers/STM32L1xx_HAL_Driver/Src/stm32l1xx_hal_i2c.c:4934:6:HAL_I2C_ER_IRQHandler	48	static
../Drivers/STM32L1xx_HAL_Driver/Src/stm32l1xx_hal_i2c.c:5014:13:HAL_I2C_MasterTxCpltCallback	16	static
../Drivers/STM32L1xx_HAL_Driver/Src/stm32l1xx_hal_i2c.c:5030:13:HAL_I2C_MasterRxCpltCallback	16	static
../Drivers/STM32L1xx_HAL_Driver/Src/stm32l1xx_hal_i2c.c:5045:13:HAL_I2C_SlaveTxCpltCallback	16	static
../Drivers/STM32L1xx_HAL_Driver/Src/stm32l1xx_hal_i2c.c:5061:13:HAL_I2C_SlaveRxCpltCallback	16	static
../Drivers/STM32L1xx_HAL_Driver/Src/stm32l1xx_hal_i2c.c:5079:13:HAL_I2C_AddrCallback	16	static
../Drivers/STM32L1xx_HAL_Driver/Src/stm32l1xx_hal_i2c.c:5097:13:HAL_I2C_ListenCpltCallback	16	static
../Drivers/STM32L1xx_HAL_Driver/Src/stm32l1xx_hal_i2c.c:5113:13:HAL_I2C_MemTxCpltCallback	16	static
../Drivers/STM32L1xx_HAL_Driver/Src/stm32l1xx_hal_i2c.c:5129:13:HAL_I2C_MemRxCpltCallback	16	static
../Drivers/STM32L1xx_HAL_Driver/Src/stm32l1xx_hal_i2c.c:5145:13:HAL_I2C_ErrorCallback	16	static
../Drivers/STM32L1xx_HAL_Driver/Src/stm32l1xx_hal_i2c.c:5161:13:HAL_I2C_AbortCpltCallback	16	static
../Drivers/STM32L1xx_HAL_Driver/Src/stm32l1xx_hal_i2c.c:5196:22:HAL_I2C_GetState	16	static
../Drivers/STM32L1xx_HAL_Driver/Src/stm32l1xx_hal_i2c.c:5208:21:HAL_I2C_GetMode	16	static
../Drivers/STM32L1xx_HAL_Driver/Src/stm32l1xx_hal_i2c.c:5219:10:HAL_I2C_GetError	16	static
../Drivers/STM32L1xx_HAL_Driver/Src/stm32l1xx_hal_i2c.c:5242:13:I2C_MasterTransmit_TXE	24	static
../Drivers/STM32L1xx_HAL_Driver/Src/stm32l1xx_hal_i2c.c:5336:13:I2C_MasterTransmit_BTF	24	static
../Drivers/STM32L1xx_HAL_Driver/Src/stm32l1xx_hal_i2c.c:5415:13:I2C_MemoryTransmit_TXE_BTF	24	static
../Drivers/STM32L1xx_HAL_Driver/Src/stm32l1xx_hal_i2c.c:5502:13:I2C_MasterReceive_RXNE	24	static
../Drivers/STM32L1xx_HAL_Driver/Src/stm32l1xx_hal_i2c.c:5612:13:I2C_MasterReceive_BTF	24	static
../Drivers/STM32L1xx_HAL_Driver/Src/stm32l1xx_hal_i2c.c:5738:13:I2C_Master_SB	16	static
../Drivers/STM32L1xx_HAL_Driver/Src/stm32l1xx_hal_i2c.c:5799:13:I2C_Master_ADD10	16	static
../Drivers/STM32L1xx_HAL_Driver/Src/stm32l1xx_hal_i2c.c:5818:13:I2C_Master_ADDR	72	static
../Drivers/STM32L1xx_HAL_Driver/Src/stm32l1xx_hal_i2c.c:5963:13:I2C_SlaveTransmit_TXE	24	static
../Drivers/STM32L1xx_HAL_Driver/Src/stm32l1xx_hal_i2c.c:6004:13:I2C_SlaveTransmit_BTF	16	static
../Drivers/STM32L1xx_HAL_Driver/Src/stm32l1xx_hal_i2c.c:6025:13:I2C_SlaveReceive_RXNE	24	static
../Drivers/STM32L1xx_HAL_Driver/Src/stm32l1xx_hal_i2c.c:6066:13:I2C_SlaveReceive_BTF	16	static
../Drivers/STM32L1xx_HAL_Driver/Src/stm32l1xx_hal_i2c.c:6088:13:I2C_Slave_ADDR	24	static
../Drivers/STM32L1xx_HAL_Driver/Src/stm32l1xx_hal_i2c.c:6139:13:I2C_Slave_STOPF	24	static
../Drivers/STM32L1xx_HAL_Driver/Src/stm32l1xx_hal_i2c.c:6308:13:I2C_Slave_AF	24	static
../Drivers/STM32L1xx_HAL_Driver/Src/stm32l1xx_hal_i2c.c:6377:13:I2C_ITError	24	static
../Drivers/STM32L1xx_HAL_Driver/Src/stm32l1xx_hal_i2c.c:6543:26:I2C_MasterRequestWrite	40	static
../Drivers/STM32L1xx_HAL_Driver/Src/stm32l1xx_hal_i2c.c:6613:26:I2C_MasterRequestRead	40	static
../Drivers/STM32L1xx_HAL_Driver/Src/stm32l1xx_hal_i2c.c:6713:26:I2C_RequestMemoryWrite	40	static
../Drivers/STM32L1xx_HAL_Driver/Src/stm32l1xx_hal_i2c.c:6793:26:I2C_RequestMemoryRead	40	static
../Drivers/STM32L1xx_HAL_Driver/Src/stm32l1xx_hal_i2c.c:6902:13:I2C_DMAXferCplt	32	static
../Drivers/STM32L1xx_HAL_Driver/Src/stm32l1xx_hal_i2c.c:7040:13:I2C_DMAError	24	static
../Drivers/STM32L1xx_HAL_Driver/Src/stm32l1xx_hal_i2c.c:7075:13:I2C_DMAAbort	32	static
../Drivers/STM32L1xx_HAL_Driver/Src/stm32l1xx_hal_i2c.c:7178:26:I2C_WaitOnFlagUntilTimeout	24	static
../Drivers/STM32L1xx_HAL_Driver/Src/stm32l1xx_hal_i2c.c:7215:26:I2C_WaitOnMasterAddressFlagUntilTimeout	24	static
../Drivers/STM32L1xx_HAL_Driver/Src/stm32l1xx_hal_i2c.c:7269:26:I2C_WaitOnTXEFlagUntilTimeout	24	static
../Drivers/STM32L1xx_HAL_Driver/Src/stm32l1xx_hal_i2c.c:7310:26:I2C_WaitOnBTFFlagUntilTimeout	24	static
../Drivers/STM32L1xx_HAL_Driver/Src/stm32l1xx_hal_i2c.c:7351:26:I2C_WaitOnSTOPFlagUntilTimeout	24	static
../Drivers/STM32L1xx_HAL_Driver/Src/stm32l1xx_hal_i2c.c:7387:26:I2C_WaitOnSTOPRequestThroughIT	24	static
../Drivers/STM32L1xx_HAL_Driver/Src/stm32l1xx_hal_i2c.c:7416:26:I2C_WaitOnRXNEFlagUntilTimeout	24	static
../Drivers/STM32L1xx_HAL_Driver/Src/stm32l1xx_hal_i2c.c:7464:26:I2C_IsAcknowledgeFailed	16	static
../Drivers/STM32L1xx_HAL_Driver/Src/stm32l1xx_hal_i2c.c:7489:13:I2C_ConvertOtherXferOptions	16	static
