../Core/Src/stm32l1xx_hal_msp.c:64:6:HAL_MspInit	24	static
../Core/Src/stm32l1xx_hal_msp.c:89:6:HAL_I2C_MspInit	48	static
../Core/Src/stm32l1xx_hal_msp.c:125:6:HAL_I2C_MspDeInit	16	static
../Core/Src/stm32l1xx_hal_msp.c:156:6:HAL_UART_MspInit	48	static
../Core/Src/stm32l1xx_hal_msp.c:192:6:HAL_UART_MspDeInit	16	static
